module news-consumer

go 1.13

require (
	github.com/go-redis/redis v6.15.7+incompatible
	github.com/go-sql-driver/mysql v1.5.0
	github.com/joho/godotenv v1.3.0
	github.com/sirupsen/logrus v1.5.0
	github.com/streadway/amqp v0.0.0-20200108173154-1c71cc93ed71
)
